{
    "function": {
        "AuthCognitoCustomMessage": {
            "build": true,
            "providerPlugin": "awscloudformation",
            "service": "Lambda"
        },
        "AuthCognitoPostConfirmation": {
            "build": true,
            "providerPlugin": "awscloudformation",
            "service": "Lambda"
        },
        "AdminQueries7922b802": {
            "service": "Lambda",
            "providerPlugin": "awscloudformation",
            "build": true,
            "dependsOn": [
                {
                    "category": "auth",
                    "resourceName": "AuthCognito",
                    "attributes": [
                        "UserPoolId"
                    ]
                }
            ]
        }
    },
    "auth": {
        "userPoolGroups": {
            "service": "Cognito-UserPool-Groups",
            "providerPlugin": "awscloudformation",
            "dependsOn": [
                {
                    "category": "auth",
                    "resourceName": "AuthCognito",
                    "attributes": [
                        "UserPoolId",
                        "AppClientIDWeb",
                        "AppClientID"
                    ]
                }
            ]
        },
        "AuthCognito": {
            "service": "Cognito",
            "providerPlugin": "awscloudformation",
            "dependsOn": [
                {
                    "category": "function",
                    "resourceName": "AuthCognitoCustomMessage",
                    "triggerProvider": "Cognito",
                    "attributes": [
                        "Arn",
                        "Name"
                    ]
                },
                {
                    "category": "function",
                    "resourceName": "AuthCognitoPostConfirmation",
                    "triggerProvider": "Cognito",
                    "attributes": [
                        "Arn",
                        "Name"
                    ]
                }
            ]
        }
    },
    "api": {
        "AdminQueries": {
            "service": "API Gateway",
            "providerPlugin": "awscloudformation",
            "dependsOn": [
                {
                    "category": "auth",
                    "resourceName": "AuthCognito",
                    "attributes": [
                        "UserPoolId"
                    ]
                },
                {
                    "category": "function",
                    "resourceName": "AdminQueries7922b802",
                    "attributes": [
                        "Arn",
                        "Name"
                    ]
                }
            ]
        }
    }
}