{
    "staging": {
        "awscloudformation": {
            "AuthRoleName": "amplify-klnmicroservicescore-staging-144832-authRole",
            "UnauthRoleArn": "arn:aws:iam::097935876878:role/amplify-klnmicroservicescore-staging-144832-unauthRole",
            "AuthRoleArn": "arn:aws:iam::097935876878:role/amplify-klnmicroservicescore-staging-144832-authRole",
            "Region": "us-east-2",
            "DeploymentBucketName": "amplify-klnmicroservicescore-staging-144832-deployment",
            "UnauthRoleName": "amplify-klnmicroservicescore-staging-144832-unauthRole",
            "StackName": "amplify-klnmicroservicescore-staging-144832",
            "StackId": "arn:aws:cloudformation:us-east-2:097935876878:stack/amplify-klnmicroservicescore-staging-144832/c5dc8be0-d039-11ea-ada1-06eba8d6f1ae",
            "AmplifyAppId": "d3b6sqadnosgdc"
        },
        "categories": {
            "function": {
                "AuthCognitoCustomMessage": {
                    "REDIRECTURL": "",
                    "EMAILSUBJECT": "",
                    "EMAILMESSAGE": ""
                },
                "AuthCognitoPostConfirmation": {
                    "GROUP": ""
                }
            },
            "auth": {
                "AuthCognito": {}
            }
        }
    }
}