{
  "trigger": true,
  "modules": [
    "add-to-group"
  ],
  "parentResource": "AuthCognito",
  "functionName": "AuthCognitoPostConfirmation",
  "resourceName": "AuthCognitoPostConfirmation",
  "parentStack": "auth",
  "triggerEnvs": [],
  "triggerDir": "/Users/naderkarass/.nvm/versions/node/v12.14.0/lib/node_modules/@aws-amplify/cli/node_modules/amplify-category-auth/provider-utils/awscloudformation/utils/../triggers/PostConfirmation",
  "triggerTemplate": "PostConfirmation.json.ejs",
  "roleName": "AuthCognitoPostConfirmation",
  "skipEdit": true,
  "GROUP": ""
}